"<Анау>"
	"анау" det dem @det #1->2
"<жігіттен>"
	"жігіт" n abl @nmod #2->7
"<сені>"
	"сен" prn pers p2 sg acc @dobj #3->5
"<маған>"
	"мен" prn pers p1 sg dat @nmod #4->5
"<бер>"
	"бер" v tv imp p2 sg @ccomp #5->6
"<деп>"
	"де" v tv gna_perf @advcl #6->7
"<сұраған>"
	"сұра" v tv past p3 sg @root #7->0
"<.>"
	"." sent @punct #8->7
¶
