"<Мына>"
	"мына" det dem @det #1->2
"<төре>"
	"төре" n nom @nsubj #2->5
"<сені>"
	"сен" prn pers p2 sg acc @dobj #3->5
"<ешкімге>"
	"ешкім" prn neg dat @nmod #4->5
"<бермейді>"
	"бер" v tv neg aor p3 sg @root #5->0
"<.>"
	"." sent @punct #6->5
¶
