"<Кімді>"
	"кім" prn itg acc @dobj #1->2
"<әлдилеп>"
	"әлдиле" v tv gna_perf @advcl #2->4
"<,>"
	"," cm @punct #3->4
"<сыбырлап>"
	"сыбырла" v iv prc_perf @root #4->0
"<тұрсыңдар>"
	"тұр" vaux pres p2 pl @aux #5->4
"<?>"
	"?" sent @punct #6->4
¶
