"<Қызды>"
	"қыз" n acc @dobj #1->3
"<біреуге>"
	"біреу" PRON @iobj #2->3
	"біреу" prn ind dat @iobj #2->3
	"біреу" prn qnt dat @iobj #2->3
"<беріп>"
	"бер" v tv prc_perf @ccomp #3->6
"<жіберуге>"
	"жібер" AUX @aux #4->3
	"жібер" v tv ger dat @aux #4->3
"<кім>"
	"кім" prn itg nom @nsubj #5->6
"<даяр>"
	"даяр" ADV @root #6->0
	"даяр" adj @root #6->0
	"даяр" adj subst nom @root #6->0
"<тұр>"
	"тұр" VERB @cop #7->6
	"тұр" vaux pres p3 sg
"<?>"
	"?" sent @punct #8->6
¶
