"<Мен>"
	"мен" prn pers p1 sg nom @nsubj #1->8
"<,>"
	"," cm @punct #2->3
"<міне>"
	"міне" PRON @amod #3->8
	"міне" adv @amod #3->8
"<,>"
	"," cm @punct #4->3
"<құдайдың>"
	"құдай" n gen @nmod:poss #5->7
	"Құдай" n gen @nmod:poss #5->7
"<жарық>"
	"жарық" adj @amod #6->7
"<күнін>"
	"күн" n px3sp acc @dobj #7->8
"<көрдім>"
	"көр" v tv ifi p1 sg @root #8->0
"<,>"
	"," cm @punct #9->8
"<жазылдым>"
	"жаз" v tv pass ifi p1 sg @parataxis #10->8
	"жазыл" v iv ifi p1 sg @parataxis #10->8
"<.>"
	"." sent @punct #11->10
¶
