"<Әлде>"
	"әлде" CONJ @cc #1->3
	"әл" n loc @cc #1->3
"<орыстар>"
	"орыс" n pl nom @nsubj #2->3
"<өлтіріп>"
	"өлтір" v tv prc_perf @root #3->0
"<тастады>"
	"таста" AUX @aux #4->3
	"таста" v tv ifi p3 pl @aux #4->3
"<?>"
	"?" sent @punct #5->3
¶
