"<Әлдебір>"
	"әлдебір" det ind @det #1->3
"<сары>"
	"сары" adj @amod #2->3
"<орыспен>"
	"орыс" n ins @iobj #3->4
"<құшақтасып>"
	"құшақта" v tv coop prc_perf @root #4->0
"<отыр>"
	"отыр" vaux pres p3 sg @aux #5->4
"<?>"
	"?" sent @punct #6->4
¶
